%!PS-Adobe-3.0 EPSF-3.0
%%Creator: graphviz version 2.36.0 (20140111.2315)
%%Title: finite_state_machine
%%Pages: 1
%%BoundingBox: 36 36 226 396
%%EndComments
save
%%BeginProlog
/DotDict 200 dict def
DotDict begin

/setupLatin1 {
mark
/EncodingVector 256 array def
 EncodingVector 0

ISOLatin1Encoding 0 255 getinterval putinterval
EncodingVector 45 /hyphen put

% Set up ISO Latin 1 character encoding
/starnetISO {
        dup dup findfont dup length dict begin
        { 1 index /FID ne { def }{ pop pop } ifelse
        } forall
        /Encoding EncodingVector def
        currentdict end definefont
} def
/Times-Roman starnetISO def
/Times-Italic starnetISO def
/Times-Bold starnetISO def
/Times-BoldItalic starnetISO def
/Helvetica starnetISO def
/Helvetica-Oblique starnetISO def
/Helvetica-Bold starnetISO def
/Helvetica-BoldOblique starnetISO def
/Courier starnetISO def
/Courier-Oblique starnetISO def
/Courier-Bold starnetISO def
/Courier-BoldOblique starnetISO def
cleartomark
} bind def

%%BeginResource: procset graphviz 0 0
/coord-font-family /Times-Roman def
/default-font-family /Times-Roman def
/coordfont coord-font-family findfont 8 scalefont def

/InvScaleFactor 1.0 def
/set_scale {
       dup 1 exch div /InvScaleFactor exch def
       scale
} bind def

% styles
/solid { [] 0 setdash } bind def
/dashed { [9 InvScaleFactor mul dup ] 0 setdash } bind def
/dotted { [1 InvScaleFactor mul 6 InvScaleFactor mul] 0 setdash } bind def
/invis {/fill {newpath} def /stroke {newpath} def /show {pop newpath} def} bind def
/bold { 2 setlinewidth } bind def
/filled { } bind def
/unfilled { } bind def
/rounded { } bind def
/diagonals { } bind def
/tapered { } bind def

% hooks for setting color 
/nodecolor { sethsbcolor } bind def
/edgecolor { sethsbcolor } bind def
/graphcolor { sethsbcolor } bind def
/nopcolor {pop pop pop} bind def

/beginpage {	% i j npages
	/npages exch def
	/j exch def
	/i exch def
	/str 10 string def
	npages 1 gt {
		gsave
			coordfont setfont
			0 0 moveto
			(\() show i str cvs show (,) show j str cvs show (\)) show
		grestore
	} if
} bind def

/set_font {
	findfont exch
	scalefont setfont
} def

% draw text fitted to its expected width
/alignedtext {			% width text
	/text exch def
	/width exch def
	gsave
		width 0 gt {
			[] 0 setdash
			text stringwidth pop width exch sub text length div 0 text ashow
		} if
	grestore
} def

/boxprim {				% xcorner ycorner xsize ysize
		4 2 roll
		moveto
		2 copy
		exch 0 rlineto
		0 exch rlineto
		pop neg 0 rlineto
		closepath
} bind def

/ellipse_path {
	/ry exch def
	/rx exch def
	/y exch def
	/x exch def
	matrix currentmatrix
	newpath
	x y translate
	rx ry scale
	0 0 1 0 360 arc
	setmatrix
} bind def

/endpage { showpage } bind def
/showpage { } def

/layercolorseq
	[	% layer color sequence - darkest to lightest
		[0 0 0]
		[.2 .8 .8]
		[.4 .8 .8]
		[.6 .8 .8]
		[.8 .8 .8]
	]
def

/layerlen layercolorseq length def

/setlayer {/maxlayer exch def /curlayer exch def
	layercolorseq curlayer 1 sub layerlen mod get
	aload pop sethsbcolor
	/nodecolor {nopcolor} def
	/edgecolor {nopcolor} def
	/graphcolor {nopcolor} def
} bind def

/onlayer { curlayer ne {invis} if } def

/onlayers {
	/myupper exch def
	/mylower exch def
	curlayer mylower lt
	curlayer myupper gt
	or
	{invis} if
} def

/curlayer 0 def

%%EndResource
%%EndProlog
%%BeginSetup
14 default-font-family set_font
1 setmiterlimit
% /arrowlength 10 def
% /arrowwidth 5 def

% make sure pdfmark is harmless for PS-interpreters other than Distiller
/pdfmark where {pop} {userdict /pdfmark /cleartomark load put} ifelse
% make '<<' and '>>' safe on PS Level 1 devices
/languagelevel where {pop languagelevel}{1} ifelse
2 lt {
    userdict (<<) cvn ([) cvn load put
    userdict (>>) cvn ([) cvn load put
} if

%%EndSetup
setupLatin1
%%Page: 1 1
%%PageBoundingBox: 36 36 226 396
%%PageOrientation: Portrait
0 0 1 beginpage
gsave
36 36 190 360 boxprim clip newpath
0.302013 0.302013 set_scale 0 rotate 123.2 123.2 translate
% END
gsave
1 setlinewidth
0 0 0 nodecolor
251 1154 25.73 25.73 ellipse_path stroke
1 setlinewidth
0 0 0 nodecolor
251 1154 29.71 29.71 ellipse_path stroke
0 0 0 nodecolor
12 /Times-Roman set_font
238 1150.9 moveto 26 (END) alignedtext
grestore
% add
gsave
1 setlinewidth
0 0 0 nodecolor
251 1084 18 18 ellipse_path stroke
1 setlinewidth
0 0 0 nodecolor
251 1084 22 22 ellipse_path stroke
0 0 0 nodecolor
10 /Times-Roman set_font
247.5 1081.5 moveto 7 (+) alignedtext
grestore
% sub
gsave
1 setlinewidth
0 0 0 nodecolor
251 1022 18 18 ellipse_path stroke
1 setlinewidth
0 0 0 nodecolor
251 1022 22 22 ellipse_path stroke
0 0 0 nodecolor
10 /Times-Roman set_font
249 1019.5 moveto 4 (-) alignedtext
grestore
% mul
gsave
1 setlinewidth
0 0 0 nodecolor
251 960 18 18 ellipse_path stroke
1 setlinewidth
0 0 0 nodecolor
251 960 22 22 ellipse_path stroke
0 0 0 nodecolor
10 /Times-Roman set_font
248 957.5 moveto 6 (*) alignedtext
grestore
% div
gsave
1 setlinewidth
0 0 0 nodecolor
251 898 18 18 ellipse_path stroke
1 setlinewidth
0 0 0 nodecolor
251 898 22 22 ellipse_path stroke
0 0 0 nodecolor
10 /Times-Roman set_font
249 895.5 moveto 4 (/) alignedtext
grestore
% eq
gsave
1 setlinewidth
0 0 0 nodecolor
251 836 18 18 ellipse_path stroke
1 setlinewidth
0 0 0 nodecolor
251 836 22 22 ellipse_path stroke
0 0 0 nodecolor
10 /Times-Roman set_font
247.5 833.5 moveto 7 (=) alignedtext
grestore
% leftP
gsave
1 setlinewidth
0 0 0 nodecolor
251 774 18 18 ellipse_path stroke
1 setlinewidth
0 0 0 nodecolor
251 774 22 22 ellipse_path stroke
0 0 0 nodecolor
10 /Times-Roman set_font
249 771.5 moveto 4 (\() alignedtext
grestore
% rightP
gsave
1 setlinewidth
0 0 0 nodecolor
251 712 18 18 ellipse_path stroke
1 setlinewidth
0 0 0 nodecolor
251 712 22 22 ellipse_path stroke
0 0 0 nodecolor
10 /Times-Roman set_font
249 709.5 moveto 4 (\)) alignedtext
grestore
% semicolon
gsave
1 setlinewidth
0 0 0 nodecolor
251 650 18 18 ellipse_path stroke
1 setlinewidth
0 0 0 nodecolor
251 650 22 22 ellipse_path stroke
0 0 0 nodecolor
10 /Times-Roman set_font
249 647.5 moveto 4 (;) alignedtext
grestore
% comma
gsave
1 setlinewidth
0 0 0 nodecolor
251 588 18 18 ellipse_path stroke
1 setlinewidth
0 0 0 nodecolor
251 588 22 22 ellipse_path stroke
0 0 0 nodecolor
10 /Times-Roman set_font
249.5 585.5 moveto 3 (,) alignedtext
grestore
% lessFS
gsave
1 setlinewidth
0 0 0 nodecolor
410 602 18 18 ellipse_path stroke
1 setlinewidth
0 0 0 nodecolor
410 602 22 22 ellipse_path stroke
0 0 0 nodecolor
12 /Times-Roman set_font
406.5 598.9 moveto 7 (<) alignedtext
grestore
% moreFS
gsave
1 setlinewidth
0 0 0 nodecolor
410 415 18 18 ellipse_path stroke
1 setlinewidth
0 0 0 nodecolor
410 415 22 22 ellipse_path stroke
0 0 0 nodecolor
12 /Times-Roman set_font
406.5 411.9 moveto 7 (>) alignedtext
grestore
% colonFS
gsave
1 setlinewidth
0 0 0 nodecolor
410 726 18 18 ellipse_path stroke
1 setlinewidth
0 0 0 nodecolor
410 726 22 22 ellipse_path stroke
0 0 0 nodecolor
12 /Times-Roman set_font
408 722.9 moveto 4 (:) alignedtext
grestore
% moreEq
gsave
1 setlinewidth
0 0 0 nodecolor
410 353 18.44 18.44 ellipse_path stroke
1 setlinewidth
0 0 0 nodecolor
410 353 22.44 22.44 ellipse_path stroke
0 0 0 nodecolor
12 /Times-Roman set_font
403 349.9 moveto 14 (>=) alignedtext
grestore
% assign
gsave
1 setlinewidth
0 0 0 nodecolor
410 664 18 18 ellipse_path stroke
1 setlinewidth
0 0 0 nodecolor
410 664 22 22 ellipse_path stroke
0 0 0 nodecolor
12 /Times-Roman set_font
405 660.9 moveto 10 (:=) alignedtext
grestore
% lessEq
gsave
1 setlinewidth
0 0 0 nodecolor
410 540 18.44 18.44 ellipse_path stroke
1 setlinewidth
0 0 0 nodecolor
410 540 22.44 22.44 ellipse_path stroke
0 0 0 nodecolor
12 /Times-Roman set_font
403 536.9 moveto 14 (<=) alignedtext
grestore
% unEq
gsave
1 setlinewidth
0 0 0 nodecolor
410 477 18.44 18.44 ellipse_path stroke
1 setlinewidth
0 0 0 nodecolor
410 477 22.44 22.44 ellipse_path stroke
0 0 0 nodecolor
12 /Times-Roman set_font
403 473.9 moveto 14 (<>) alignedtext
grestore
% err
gsave
1 setlinewidth
0 0 0 nodecolor
410 273 35.89 35.89 ellipse_path stroke
1 setlinewidth
0 0 0 nodecolor
410 273 39.91 39.91 ellipse_path stroke
0 0 0 nodecolor
12 /Times-Roman set_font
389 269.9 moveto 42 (ERROR) alignedtext
grestore
% koniecC
gsave
1 setlinewidth
0 0 0 nodecolor
410 185 25.73 25.73 ellipse_path stroke
1 setlinewidth
0 0 0 nodecolor
410 185 29.71 29.71 ellipse_path stroke
0 0 0 nodecolor
12 /Times-Roman set_font
397 181.9 moveto 26 (END) alignedtext
grestore
% S
gsave
1 setlinewidth
0 0 0 nodecolor
81 650 38.19 38.19 ellipse_path stroke
0 0 0 nodecolor
14 /Times-Roman set_font
59.5 646.3 moveto 43 (START) alignedtext
grestore
% S->END
gsave
1 setlinewidth
0 0 0 edgecolor
newpath 83.35 688.27 moveto
87.16 779.23 100.26 1005.58 138 1070 curveto
155.62 1100.07 188.64 1122.81 214.28 1136.99 curveto
stroke
0 0 0 edgecolor
newpath 212.88 1140.21 moveto
223.35 1141.83 lineto
216.17 1134.04 lineto
closepath fill
1 setlinewidth
solid
0 0 0 edgecolor
newpath 212.88 1140.21 moveto
223.35 1141.83 lineto
216.17 1134.04 lineto
closepath stroke
0 0 0 edgecolor
14 /Times-Roman set_font
148 1120.8 moveto 26 (EOF) alignedtext
grestore
% S->add
gsave
1 setlinewidth
0 0 0 edgecolor
newpath 84.25 688.25 moveto
89.59 769.08 105.14 954.2 138 1007 curveto
157.35 1038.09 194.39 1059.78 220.57 1072.04 curveto
stroke
0 0 0 edgecolor
newpath 219.46 1075.38 moveto
230.01 1076.28 lineto
222.32 1068.99 lineto
closepath fill
1 setlinewidth
solid
0 0 0 edgecolor
newpath 219.46 1075.38 moveto
230.01 1076.28 lineto
222.32 1068.99 lineto
closepath stroke
0 0 0 edgecolor
14 /Times-Roman set_font
156.5 1054.8 moveto 9 (+) alignedtext
grestore
% S->sub
gsave
1 setlinewidth
0 0 0 edgecolor
newpath 85.77 687.9 moveto
93.23 757.17 111.46 900.96 138 943 curveto
157.8 974.36 195 996.82 221.08 1009.59 curveto
stroke
0 0 0 edgecolor
newpath 219.6 1012.76 moveto
230.13 1013.85 lineto
222.58 1006.42 lineto
closepath fill
1 setlinewidth
solid
0 0 0 edgecolor
newpath 219.6 1012.76 moveto
230.13 1013.85 lineto
222.58 1006.42 lineto
closepath stroke
0 0 0 edgecolor
14 /Times-Roman set_font
158.5 991.8 moveto 5 (-) alignedtext
grestore
% S->mul
gsave
1 setlinewidth
0 0 0 edgecolor
newpath 83.66 688.33 moveto
87.39 736.46 99.39 819.89 138 879 curveto
158.45 910.31 195.52 933.52 221.38 946.89 curveto
stroke
0 0 0 edgecolor
newpath 219.84 950.03 moveto
230.35 951.36 lineto
222.97 943.77 lineto
closepath fill
1 setlinewidth
solid
0 0 0 edgecolor
newpath 219.84 950.03 moveto
230.35 951.36 lineto
222.97 943.77 lineto
closepath stroke
0 0 0 edgecolor
14 /Times-Roman set_font
157.5 927.8 moveto 7 (*) alignedtext
grestore
% S->div
gsave
1 setlinewidth
0 0 0 edgecolor
newpath 88.4 687.51 moveto
95.82 722.89 110.69 776.14 138 815 curveto
159.69 845.86 196.48 869.91 221.95 884 curveto
stroke
0 0 0 edgecolor
newpath 220.31 887.09 moveto
230.77 888.74 lineto
223.62 880.92 lineto
closepath fill
1 setlinewidth
solid
0 0 0 edgecolor
newpath 220.31 887.09 moveto
230.77 888.74 lineto
223.62 880.92 lineto
closepath stroke
0 0 0 edgecolor
14 /Times-Roman set_font
159 863.8 moveto 4 (/) alignedtext
grestore
% S->eq
gsave
1 setlinewidth
0 0 0 edgecolor
newpath 95.91 685.32 moveto
105.61 707.16 120.03 734.95 138 756 curveto
161.94 784.04 197.7 807.34 222.35 821.43 curveto
stroke
0 0 0 edgecolor
newpath 220.76 824.55 moveto
231.2 826.37 lineto
224.17 818.44 lineto
closepath fill
1 setlinewidth
solid
0 0 0 edgecolor
newpath 220.76 824.55 moveto
231.2 826.37 lineto
224.17 818.44 lineto
closepath stroke
0 0 0 edgecolor
14 /Times-Roman set_font
156.5 799.8 moveto 9 (=) alignedtext
grestore
% S->leftP
gsave
1 setlinewidth
0 0 0 edgecolor
newpath 107.27 677.87 moveto
116.49 687.32 127.29 697.6 138 706 curveto
164.89 727.11 198.81 746.87 222.24 759.59 curveto
stroke
0 0 0 edgecolor
newpath 220.81 762.8 moveto
231.28 764.43 lineto
224.11 756.63 lineto
closepath fill
1 setlinewidth
solid
0 0 0 edgecolor
newpath 220.81 762.8 moveto
231.28 764.43 lineto
224.11 756.63 lineto
closepath stroke
0 0 0 edgecolor
14 /Times-Roman set_font
158.5 740.8 moveto 5 (\() alignedtext
grestore
% S->rightP
gsave
1 setlinewidth
0 0 0 edgecolor
newpath 117.22 663 moveto
147.86 674.31 191.75 690.5 220.56 701.13 curveto
stroke
0 0 0 edgecolor
newpath 219.48 704.47 moveto
230.07 704.65 lineto
221.9 697.9 lineto
closepath fill
1 setlinewidth
solid
0 0 0 edgecolor
newpath 219.48 704.47 moveto
230.07 704.65 lineto
221.9 697.9 lineto
closepath stroke
0 0 0 edgecolor
14 /Times-Roman set_font
158.5 690.8 moveto 5 (\)) alignedtext
grestore
% S->semicolon
gsave
1 setlinewidth
0 0 0 edgecolor
newpath 119.7 650 moveto
149.55 650 190.75 650 218.78 650 curveto
stroke
0 0 0 edgecolor
newpath 218.82 653.5 moveto
228.82 650 lineto
218.82 646.5 lineto
closepath fill
1 setlinewidth
solid
0 0 0 edgecolor
newpath 218.82 653.5 moveto
228.82 650 lineto
218.82 646.5 lineto
closepath stroke
0 0 0 edgecolor
14 /Times-Roman set_font
159 653.8 moveto 4 (;) alignedtext
grestore
% S->comma
gsave
1 setlinewidth
0 0 0 edgecolor
newpath 117.22 637 moveto
147.86 625.69 191.75 609.5 220.56 598.87 curveto
stroke
0 0 0 edgecolor
newpath 221.9 602.1 moveto
230.07 595.35 lineto
219.48 595.53 lineto
closepath fill
1 setlinewidth
solid
0 0 0 edgecolor
newpath 221.9 602.1 moveto
230.07 595.35 lineto
219.48 595.53 lineto
closepath stroke
0 0 0 edgecolor
14 /Times-Roman set_font
159 632.8 moveto 4 (,) alignedtext
grestore
% S->S
gsave
1 setlinewidth
0 0 0 edgecolor
newpath 70.15 686.62 moveto
70.47 697.52 74.09 706 81 706 curveto
85.53 706 88.65 702.35 90.35 696.76 curveto
stroke
0 0 0 edgecolor
newpath 93.85 697.03 moveto
91.85 686.62 lineto
86.92 696 lineto
closepath fill
1 setlinewidth
solid
0 0 0 edgecolor
newpath 93.85 697.03 moveto
91.85 686.62 lineto
86.92 696 lineto
closepath stroke
0 0 0 edgecolor
14 /Times-Roman set_font
52.5 709.8 moveto 57 (biely znak) alignedtext
grestore
% colon
gsave
1 setlinewidth
0 0 0 nodecolor
251 530 18 18 ellipse_path stroke
0 0 0 nodecolor
12 /Times-Roman set_font
249 526.9 moveto 4 (:) alignedtext
grestore
% S->colon
gsave
1 setlinewidth
0 0 0 edgecolor
newpath 107.57 622.32 moveto
116.73 613.12 127.42 603.15 138 595 curveto
164.21 574.82 173.36 573.55 202 557 curveto
209.77 552.51 218.29 547.68 225.97 543.37 curveto
stroke
0 0 0 edgecolor
newpath 227.8 546.36 moveto
234.82 538.42 lineto
224.38 540.25 lineto
closepath fill
1 setlinewidth
solid
0 0 0 edgecolor
newpath 227.8 546.36 moveto
234.82 538.42 lineto
224.38 540.25 lineto
closepath stroke
0 0 0 edgecolor
14 /Times-Roman set_font
159 598.8 moveto 4 (:) alignedtext
grestore
% less
gsave
1 setlinewidth
0 0 0 nodecolor
251 476 18 18 ellipse_path stroke
0 0 0 nodecolor
12 /Times-Roman set_font
247.5 472.9 moveto 7 (<) alignedtext
grestore
% S->less
gsave
1 setlinewidth
0 0 0 edgecolor
newpath 96.76 614.84 moveto
106.51 594.22 120.68 568.48 138 549 curveto
162.65 521.29 200.16 499.73 224.88 487.44 curveto
stroke
0 0 0 edgecolor
newpath 226.5 490.54 moveto
233.98 483.04 lineto
223.46 484.24 lineto
closepath fill
1 setlinewidth
solid
0 0 0 edgecolor
newpath 226.5 490.54 moveto
233.98 483.04 lineto
223.46 484.24 lineto
closepath stroke
0 0 0 edgecolor
14 /Times-Roman set_font
156.5 552.8 moveto 9 (<) alignedtext
grestore
% more
gsave
1 setlinewidth
0 0 0 nodecolor
251 419 18 18 ellipse_path stroke
0 0 0 nodecolor
12 /Times-Roman set_font
247.5 415.9 moveto 7 (>) alignedtext
grestore
% S->more
gsave
1 setlinewidth
0 0 0 edgecolor
newpath 88.58 612.24 moveto
95.99 578.29 110.74 528.44 138 493 curveto
160.83 463.32 199.12 441.74 224.47 429.79 curveto
stroke
0 0 0 edgecolor
newpath 226.16 432.87 moveto
233.82 425.55 lineto
223.26 426.5 lineto
closepath fill
1 setlinewidth
solid
0 0 0 edgecolor
newpath 226.16 432.87 moveto
233.82 425.55 lineto
223.26 426.5 lineto
closepath stroke
0 0 0 edgecolor
14 /Times-Roman set_font
156.5 496.8 moveto 9 (>) alignedtext
grestore
% apost
gsave
1 setlinewidth
0 0 0 nodecolor
newpath 251 383 moveto
224 365 lineto
251 347 lineto
278 365 lineto
closepath stroke
0 0 0 nodecolor
12 /Times-Roman set_font
249.5 361.9 moveto 3 (') alignedtext
grestore
% S->apost
gsave
1 setlinewidth
0 0 0 edgecolor
newpath 84.01 611.86 moveto
88.1 566.27 100.48 489.43 138 436 curveto
159.02 406.06 197.1 385.93 222.96 374.97 curveto
stroke
0 0 0 edgecolor
newpath 224.59 378.09 moveto
232.54 371.09 lineto
221.96 371.6 lineto
closepath fill
1 setlinewidth
solid
0 0 0 edgecolor
newpath 224.59 378.09 moveto
232.54 371.09 lineto
221.96 371.6 lineto
closepath stroke
0 0 0 edgecolor
14 /Times-Roman set_font
159.5 439.8 moveto 3 (') alignedtext
grestore
% comment
gsave
1 setlinewidth
0 0 0 nodecolor
251 275 48.76 48.76 ellipse_path stroke
0 0 0 nodecolor
12 /Times-Roman set_font
219.5 271.9 moveto 63 (COMMENT) alignedtext
grestore
% S->comment
gsave
1 setlinewidth
0 0 0 edgecolor
newpath 82.51 611.66 moveto
84.8 556.33 95.06 452.49 138 377 curveto
153.58 349.62 179.1 325.53 201.85 307.64 curveto
stroke
0 0 0 edgecolor
newpath 204.27 310.2 moveto
210.08 301.34 lineto
200.01 304.64 lineto
closepath fill
1 setlinewidth
solid
0 0 0 edgecolor
newpath 204.27 310.2 moveto
210.08 301.34 lineto
200.01 304.64 lineto
closepath stroke
0 0 0 edgecolor
14 /Times-Roman set_font
157.5 380.8 moveto 7 ({) alignedtext
grestore
% alpha
gsave
1 setlinewidth
0 0 0 nodecolor
251 130 44.88 44.88 ellipse_path stroke
0 0 0 nodecolor
12 /Times-Roman set_font
222.5 126.9 moveto 57 (A-Za-z0-9_) alignedtext
grestore
% S->alpha
gsave
1 setlinewidth
0 0 0 edgecolor
newpath 83.17 611.68 moveto
86.25 546.58 97.43 411.13 138 305 curveto
156.7 256.08 190.22 206.36 215.73 172.48 curveto
stroke
0 0 0 edgecolor
newpath 218.75 174.29 moveto
222.03 164.22 lineto
213.18 170.05 lineto
closepath fill
1 setlinewidth
solid
0 0 0 edgecolor
newpath 218.75 174.29 moveto
222.03 164.22 lineto
213.18 170.05 lineto
closepath stroke
0 0 0 edgecolor
14 /Times-Roman set_font
138 308.8 moveto 46 (A-Za-z_) alignedtext
grestore
% num
gsave
1 setlinewidth
0 0 0 nodecolor
newpath 251 67 moveto
223.28 49 lineto
251 31 lineto
278.72 49 lineto
closepath stroke
0 0 0 nodecolor
12 /Times-Roman set_font
243 45.9 moveto 16 (0-9) alignedtext
grestore
% S->num
gsave
1 setlinewidth
0 0 0 edgecolor
newpath 82.32 611.82 moveto
83.94 533.17 92.7 348.15 138 201 curveto
156.36 141.35 158.74 120.99 202 76 curveto
208.12 69.63 216.08 64.34 223.75 60.18 curveto
stroke
0 0 0 edgecolor
newpath 225.43 63.26 moveto
232.82 55.67 lineto
222.31 56.99 lineto
closepath fill
1 setlinewidth
solid
0 0 0 edgecolor
newpath 225.43 63.26 moveto
232.82 55.67 lineto
222.31 56.99 lineto
closepath stroke
0 0 0 edgecolor
14 /Times-Roman set_font
151.5 204.8 moveto 19 (0-9) alignedtext
grestore
% colon->colonFS
gsave
1 setlinewidth
0 0 0 edgecolor
newpath 268.63 535.37 moveto
279.16 539.61 292.22 546.58 300 557 curveto
321.54 585.86 301.45 604.02 318 636 curveto
333.35 665.66 362.04 691.51 383.12 707.81 curveto
stroke
0 0 0 edgecolor
newpath 381.24 710.78 moveto
391.34 713.98 lineto
385.45 705.18 lineto
closepath fill
1 setlinewidth
solid
0 0 0 edgecolor
newpath 381.24 710.78 moveto
391.34 713.98 lineto
385.45 705.18 lineto
closepath stroke
0 0 0 edgecolor
14 /Times-Roman set_font
318.5 684.8 moveto 33 (ELSE) alignedtext
grestore
% colon->assign
gsave
1 setlinewidth
0 0 0 edgecolor
newpath 267.91 536.62 moveto
277.89 541.3 290.6 548.29 300 557 curveto
310.58 566.81 308.64 573.03 318 584 curveto
338.42 607.92 346.28 611.35 370 632 curveto
374.66 636.05 379.7 640.3 384.57 644.32 curveto
stroke
0 0 0 edgecolor
newpath 382.55 647.19 moveto
392.5 650.82 lineto
386.99 641.78 lineto
closepath fill
1 setlinewidth
solid
0 0 0 edgecolor
newpath 382.55 647.19 moveto
392.5 650.82 lineto
386.99 641.78 lineto
closepath stroke
0 0 0 edgecolor
14 /Times-Roman set_font
330.5 620.8 moveto 9 (=) alignedtext
grestore
% less->lessFS
gsave
1 setlinewidth
0 0 0 edgecolor
newpath 268.14 482.38 moveto
278.21 486.97 290.94 493.94 300 503 curveto
311.54 514.54 307.19 522.78 318 535 curveto
336.4 555.8 362.28 574.09 381.74 586.28 curveto
stroke
0 0 0 edgecolor
newpath 380.09 589.37 moveto
390.45 591.6 lineto
383.74 583.4 lineto
closepath fill
1 setlinewidth
solid
0 0 0 edgecolor
newpath 380.09 589.37 moveto
390.45 591.6 lineto
383.74 583.4 lineto
closepath stroke
0 0 0 edgecolor
14 /Times-Roman set_font
318.5 568.8 moveto 33 (ELSE) alignedtext
grestore
% less->lessEq
gsave
1 setlinewidth
0 0 0 edgecolor
newpath 267.92 482.49 moveto
293.99 493.12 346.19 514.39 379.26 527.88 curveto
stroke
0 0 0 edgecolor
newpath 378.28 531.26 moveto
388.86 531.79 lineto
380.92 524.78 lineto
closepath fill
1 setlinewidth
solid
0 0 0 edgecolor
newpath 378.28 531.26 moveto
388.86 531.79 lineto
380.92 524.78 lineto
closepath stroke
0 0 0 edgecolor
14 /Times-Roman set_font
330.5 519.8 moveto 9 (=) alignedtext
grestore
% less->unEq
gsave
1 setlinewidth
0 0 0 edgecolor
newpath 269.1 476.11 moveto
294.95 476.27 344.41 476.59 377.05 476.8 curveto
stroke
0 0 0 edgecolor
newpath 377.4 480.3 moveto
387.42 476.86 lineto
377.44 473.3 lineto
closepath fill
1 setlinewidth
solid
0 0 0 edgecolor
newpath 377.4 480.3 moveto
387.42 476.86 lineto
377.44 473.3 lineto
closepath stroke
0 0 0 edgecolor
14 /Times-Roman set_font
330.5 480.8 moveto 9 (>) alignedtext
grestore
% more->moreFS
gsave
1 setlinewidth
0 0 0 edgecolor
newpath 269.1 418.56 moveto
295.09 417.9 344.96 416.63 377.59 415.8 curveto
stroke
0 0 0 edgecolor
newpath 378.03 419.29 moveto
387.94 415.54 lineto
377.85 412.29 lineto
closepath fill
1 setlinewidth
solid
0 0 0 edgecolor
newpath 378.03 419.29 moveto
387.94 415.54 lineto
377.85 412.29 lineto
closepath stroke
0 0 0 edgecolor
14 /Times-Roman set_font
318.5 421.8 moveto 33 (ELSE) alignedtext
grestore
% more->moreEq
gsave
1 setlinewidth
0 0 0 edgecolor
newpath 267.92 412.31 moveto
294.06 401.32 346.47 379.29 379.53 365.39 curveto
stroke
0 0 0 edgecolor
newpath 381.26 368.46 moveto
389.12 361.36 lineto
378.54 362.01 lineto
closepath fill
1 setlinewidth
solid
0 0 0 edgecolor
newpath 381.26 368.46 moveto
389.12 361.36 lineto
378.54 362.01 lineto
closepath stroke
0 0 0 edgecolor
14 /Times-Roman set_font
330.5 393.8 moveto 9 (=) alignedtext
grestore
% comment->err
gsave
1 setlinewidth
0 0 0 edgecolor
newpath 299.96 274.39 moveto
319.07 274.15 341.04 273.87 360.23 273.62 curveto
stroke
0 0 0 edgecolor
newpath 360.32 277.12 moveto
370.27 273.49 lineto
360.23 270.12 lineto
closepath fill
1 setlinewidth
solid
0 0 0 edgecolor
newpath 360.32 277.12 moveto
370.27 273.49 lineto
360.23 270.12 lineto
closepath stroke
0 0 0 edgecolor
14 /Times-Roman set_font
322 278.8 moveto 26 (EOF) alignedtext
grestore
% comment->koniecC
gsave
1 setlinewidth
0 0 0 edgecolor
newpath 293.66 251.12 moveto
319.12 236.53 351.25 218.1 375.14 204.41 curveto
stroke
0 0 0 edgecolor
newpath 376.92 207.42 moveto
383.85 199.41 lineto
373.44 201.35 lineto
closepath fill
1 setlinewidth
solid
0 0 0 edgecolor
newpath 376.92 207.42 moveto
383.85 199.41 lineto
373.44 201.35 lineto
closepath stroke
0 0 0 edgecolor
14 /Times-Roman set_font
331.5 239.8 moveto 7 (}) alignedtext
grestore
% alpha->alpha
gsave
1 setlinewidth
0 0 0 edgecolor
newpath 235.35 171.73 moveto
236.1 183.22 241.32 192 251 192 curveto
257.5 192 261.99 188.04 264.47 181.95 curveto
stroke
0 0 0 edgecolor
newpath 267.99 182.24 moveto
266.65 171.73 lineto
261.14 180.77 lineto
closepath fill
1 setlinewidth
solid
0 0 0 edgecolor
newpath 267.99 182.24 moveto
266.65 171.73 lineto
261.14 180.77 lineto
closepath stroke
0 0 0 edgecolor
14 /Times-Roman set_font
219 195.8 moveto 64 (A-Za-z0-9_) alignedtext
grestore
% keyWQ
gsave
0 0 0 nodecolor
12 /Times-Roman set_font
383 115.9 moveto 54 (Key word?) alignedtext
grestore
% alpha->keyWQ
gsave
1 setlinewidth
0 0 0 edgecolor
newpath 296.15 126.91 moveto
317.59 125.4 343.28 123.6 364.73 122.1 curveto
stroke
0 0 0 edgecolor
newpath 365.15 125.58 moveto
374.88 121.39 lineto
364.66 118.6 lineto
closepath fill
1 setlinewidth
solid
0 0 0 edgecolor
newpath 365.15 125.58 moveto
374.88 121.39 lineto
364.66 118.6 lineto
closepath stroke
0 0 0 edgecolor
14 /Times-Roman set_font
318.5 129.8 moveto 33 (ELSE) alignedtext
grestore
% keyW
gsave
1 setlinewidth
0 0 0 nodecolor
567 183 51.18 51.18 ellipse_path stroke
1 setlinewidth
0 0 0 nodecolor
567 183 55.19 55.19 ellipse_path stroke
0 0 0 nodecolor
12 /Times-Roman set_font
533.5 179.9 moveto 67 (KEY WORD) alignedtext
grestore
% id
gsave
1 setlinewidth
0 0 0 nodecolor
567 55 51.18 51.18 ellipse_path stroke
1 setlinewidth
0 0 0 nodecolor
567 55 55.19 55.19 ellipse_path stroke
0 0 0 nodecolor
12 /Times-Roman set_font
533.5 51.9 moveto 67 (IDENTIFIER) alignedtext
grestore
% keyWQ->keyW
gsave
1 setlinewidth
0 0 0 edgecolor
newpath 445.02 133.05 moveto
463.02 140.48 485.66 149.83 506.47 158.42 curveto
stroke
0 0 0 edgecolor
newpath 505.3 161.72 moveto
515.87 162.3 lineto
507.97 155.25 lineto
closepath fill
1 setlinewidth
solid
0 0 0 edgecolor
newpath 505.3 161.72 moveto
515.87 162.3 lineto
507.97 155.25 lineto
closepath stroke
0 0 0 edgecolor
14 /Times-Roman set_font
468 156.8 moveto 26 (YES) alignedtext
grestore
% keyWQ->id
gsave
1 setlinewidth
0 0 0 edgecolor
newpath 445.02 104.95 moveto
463.02 97.52 485.66 88.17 506.47 79.58 curveto
stroke
0 0 0 edgecolor
newpath 507.97 82.75 moveto
515.87 75.7 lineto
505.3 76.28 lineto
closepath fill
1 setlinewidth
solid
0 0 0 edgecolor
newpath 507.97 82.75 moveto
515.87 75.7 lineto
505.3 76.28 lineto
closepath stroke
0 0 0 edgecolor
14 /Times-Roman set_font
471 98.8 moveto 20 (NO) alignedtext
grestore
% qi
gsave
0 0 0 nodecolor
2 650 1.8 1.8 ellipse_path fill
1 setlinewidth
filled
0 0 0 nodecolor
2 650 1.8 1.8 ellipse_path stroke
grestore
% qi->S
gsave
1 setlinewidth
0 0 0 edgecolor
newpath 3.86 650 moveto
7.11 650 19.06 650 32.57 650 curveto
stroke
0 0 0 edgecolor
newpath 32.57 653.5 moveto
42.57 650 lineto
32.57 646.5 lineto
closepath fill
1 setlinewidth
solid
0 0 0 edgecolor
newpath 32.57 653.5 moveto
42.57 650 lineto
32.57 646.5 lineto
closepath stroke
grestore
endpage
showpage
grestore
%%PageTrailer
%%EndPage: 1
%%Trailer
end
restore
%%EOF
