%!PS-Adobe-3.0 EPSF-3.0
%%Creator: graphviz version 2.36.0 (20140111.2315)
%%Title: finite_state_machine
%%Pages: 1
%%BoundingBox: 36 36 365 846
%%EndComments
save
%%BeginProlog
/DotDict 200 dict def
DotDict begin

/setupLatin1 {
mark
/EncodingVector 256 array def
 EncodingVector 0

ISOLatin1Encoding 0 255 getinterval putinterval
EncodingVector 45 /hyphen put

% Set up ISO Latin 1 character encoding
/starnetISO {
        dup dup findfont dup length dict begin
        { 1 index /FID ne { def }{ pop pop } ifelse
        } forall
        /Encoding EncodingVector def
        currentdict end definefont
} def
/Times-Roman starnetISO def
/Times-Italic starnetISO def
/Times-Bold starnetISO def
/Times-BoldItalic starnetISO def
/Helvetica starnetISO def
/Helvetica-Oblique starnetISO def
/Helvetica-Bold starnetISO def
/Helvetica-BoldOblique starnetISO def
/Courier starnetISO def
/Courier-Oblique starnetISO def
/Courier-Bold starnetISO def
/Courier-BoldOblique starnetISO def
cleartomark
} bind def

%%BeginResource: procset graphviz 0 0
/coord-font-family /Times-Roman def
/default-font-family /Times-Roman def
/coordfont coord-font-family findfont 8 scalefont def

/InvScaleFactor 1.0 def
/set_scale {
       dup 1 exch div /InvScaleFactor exch def
       scale
} bind def

% styles
/solid { [] 0 setdash } bind def
/dashed { [9 InvScaleFactor mul dup ] 0 setdash } bind def
/dotted { [1 InvScaleFactor mul 6 InvScaleFactor mul] 0 setdash } bind def
/invis {/fill {newpath} def /stroke {newpath} def /show {pop newpath} def} bind def
/bold { 2 setlinewidth } bind def
/filled { } bind def
/unfilled { } bind def
/rounded { } bind def
/diagonals { } bind def
/tapered { } bind def

% hooks for setting color 
/nodecolor { sethsbcolor } bind def
/edgecolor { sethsbcolor } bind def
/graphcolor { sethsbcolor } bind def
/nopcolor {pop pop pop} bind def

/beginpage {	% i j npages
	/npages exch def
	/j exch def
	/i exch def
	/str 10 string def
	npages 1 gt {
		gsave
			coordfont setfont
			0 0 moveto
			(\() show i str cvs show (,) show j str cvs show (\)) show
		grestore
	} if
} bind def

/set_font {
	findfont exch
	scalefont setfont
} def

% draw text fitted to its expected width
/alignedtext {			% width text
	/text exch def
	/width exch def
	gsave
		width 0 gt {
			[] 0 setdash
			text stringwidth pop width exch sub text length div 0 text ashow
		} if
	grestore
} def

/boxprim {				% xcorner ycorner xsize ysize
		4 2 roll
		moveto
		2 copy
		exch 0 rlineto
		0 exch rlineto
		pop neg 0 rlineto
		closepath
} bind def

/ellipse_path {
	/ry exch def
	/rx exch def
	/y exch def
	/x exch def
	matrix currentmatrix
	newpath
	x y translate
	rx ry scale
	0 0 1 0 360 arc
	setmatrix
} bind def

/endpage { showpage } bind def
/showpage { } def

/layercolorseq
	[	% layer color sequence - darkest to lightest
		[0 0 0]
		[.2 .8 .8]
		[.4 .8 .8]
		[.6 .8 .8]
		[.8 .8 .8]
	]
def

/layerlen layercolorseq length def

/setlayer {/maxlayer exch def /curlayer exch def
	layercolorseq curlayer 1 sub layerlen mod get
	aload pop sethsbcolor
	/nodecolor {nopcolor} def
	/edgecolor {nopcolor} def
	/graphcolor {nopcolor} def
} bind def

/onlayer { curlayer ne {invis} if } def

/onlayers {
	/myupper exch def
	/mylower exch def
	curlayer mylower lt
	curlayer myupper gt
	or
	{invis} if
} def

/curlayer 0 def

%%EndResource
%%EndProlog
%%BeginSetup
14 default-font-family set_font
1 setmiterlimit
% /arrowlength 10 def
% /arrowwidth 5 def

% make sure pdfmark is harmless for PS-interpreters other than Distiller
/pdfmark where {pop} {userdict /pdfmark /cleartomark load put} ifelse
% make '<<' and '>>' safe on PS Level 1 devices
/languagelevel where {pop languagelevel}{1} ifelse
2 lt {
    userdict (<<) cvn ([) cvn load put
    userdict (>>) cvn ([) cvn load put
} if

%%EndSetup
setupLatin1
%%Page: 1 1
%%PageBoundingBox: 36 36 365 846
%%PageOrientation: Portrait
0 0 1 beginpage
gsave
36 36 329 810 boxprim clip newpath
1 1 set_scale 0 rotate 40 40 translate
% num
gsave
1 setlinewidth
0 0 0 nodecolor
117.26 740 19.55 19.9 ellipse_path stroke
0 0 0 nodecolor
12 /Times-Roman set_font
109.26 736.9 moveto 16 (0-9) alignedtext
grestore
% num->num
gsave
1 setlinewidth
0 0 0 edgecolor
newpath 135.54 746.83 moveto
145.34 747.99 154.26 745.71 154.26 740 curveto
154.26 736.43 150.78 734.2 145.77 733.31 curveto
stroke
0 0 0 edgecolor
newpath 145.59 729.81 moveto
135.54 733.17 lineto
145.49 736.81 lineto
closepath fill
1 setlinewidth
solid
0 0 0 edgecolor
newpath 145.59 729.81 moveto
135.54 733.17 lineto
145.49 736.81 lineto
closepath stroke
0 0 0 edgecolor
14 /Times-Roman set_font
154.26 736.3 moveto 19 (0-9) alignedtext
grestore
% int
gsave
1 setlinewidth
0 0 0 nodecolor
89.26 621 42.24 42.45 ellipse_path stroke
1 setlinewidth
0 0 0 nodecolor
89.26 621 46.21 46.45 ellipse_path stroke
0 0 0 nodecolor
12 /Times-Roman set_font
62.76 617.9 moveto 53 (INTEGER) alignedtext
grestore
% num->int
gsave
1 setlinewidth
0 0 0 edgecolor
newpath 110.98 721.06 moveto
109 715.04 106.9 708.27 105.26 702 curveto
103.15 693.92 101.17 685.32 99.36 676.87 curveto
stroke
0 0 0 edgecolor
newpath 102.78 676.14 moveto
97.32 667.06 lineto
95.93 677.56 lineto
closepath fill
1 setlinewidth
solid
0 0 0 edgecolor
newpath 102.78 676.14 moveto
97.32 667.06 lineto
95.93 677.56 lineto
closepath stroke
0 0 0 edgecolor
14 /Times-Roman set_font
105.26 690.3 moveto 33 (ELSE) alignedtext
grestore
% real1
gsave
1 setlinewidth
0 0 0 nodecolor
175.26 621 21.32 21.59 ellipse_path stroke
0 0 0 nodecolor
12 /Times-Roman set_font
165.76 617.9 moveto 19 (0-9.) alignedtext
grestore
% num->real1
gsave
1 setlinewidth
0 0 0 edgecolor
newpath 126.97 722.58 moveto
130.63 716.22 134.75 708.83 138.26 702 curveto
146.93 685.14 155.87 665.87 162.79 650.46 curveto
stroke
0 0 0 edgecolor
newpath 166.15 651.52 moveto
167.03 640.96 lineto
159.76 648.67 lineto
closepath fill
1 setlinewidth
solid
0 0 0 edgecolor
newpath 166.15 651.52 moveto
167.03 640.96 lineto
159.76 648.67 lineto
closepath stroke
0 0 0 edgecolor
14 /Times-Roman set_font
146.26 690.3 moveto 4 (.) alignedtext
grestore
% real
gsave
1 setlinewidth
0 0 0 nodecolor
256.26 34 30.24 30.31 ellipse_path stroke
1 setlinewidth
0 0 0 nodecolor
256.26 34 34.25 34.33 ellipse_path stroke
0 0 0 nodecolor
12 /Times-Roman set_font
239.76 30.9 moveto 33 (REAL) alignedtext
grestore
% errN
gsave
1 setlinewidth
0 0 0 nodecolor
64.26 184 35.57 35.89 ellipse_path stroke
1 setlinewidth
0 0 0 nodecolor
64.26 184 39.56 39.91 ellipse_path stroke
0 0 0 nodecolor
12 /Times-Roman set_font
43.26 180.9 moveto 42 (ERROR) alignedtext
grestore
% real1->errN
gsave
1 setlinewidth
0 0 0 edgecolor
newpath 164.56 602.37 moveto
158.92 593.55 151.65 582.89 144.26 574 curveto
91.66 510.65 44.06 519.95 12.26 444 curveto
-17.98 371.77 15.25 280.67 40.74 228.01 curveto
stroke
0 0 0 edgecolor
newpath 43.93 229.46 moveto
45.23 218.95 lineto
37.66 226.35 lineto
closepath fill
1 setlinewidth
solid
0 0 0 edgecolor
newpath 43.93 229.46 moveto
45.23 218.95 lineto
37.66 226.35 lineto
closepath stroke
0 0 0 edgecolor
14 /Times-Roman set_font
12.26 432.3 moveto 66 (ELSE, EOF) alignedtext
grestore
% real2
gsave
1 setlinewidth
0 0 0 nodecolor
137.26 492 30.25 30.33 ellipse_path stroke
0 0 0 nodecolor
12 /Times-Roman set_font
120.76 488.9 moveto 33 (0-9.+/-) alignedtext
grestore
% real1->real2
gsave
1 setlinewidth
0 0 0 edgecolor
newpath 169.33 600.16 moveto
163.8 581.68 155.41 553.65 148.6 530.89 curveto
stroke
0 0 0 edgecolor
newpath 151.92 529.76 moveto
145.7 521.19 lineto
145.21 531.77 lineto
closepath fill
1 setlinewidth
solid
0 0 0 edgecolor
newpath 151.92 529.76 moveto
145.7 521.19 lineto
145.21 531.77 lineto
closepath stroke
0 0 0 edgecolor
14 /Times-Roman set_font
155.26 544.3 moveto 31 ({+/-}) alignedtext
grestore
% real3
gsave
1 setlinewidth
0 0 0 nodecolor
203.26 355 54.18 54.58 ellipse_path stroke
0 0 0 nodecolor
12 /Times-Roman set_font
166.76 351.9 moveto 73 (0-9.{+/-}{e/E}) alignedtext
grestore
% real1->real3
gsave
1 setlinewidth
0 0 0 edgecolor
newpath 180.43 599.96 moveto
183.47 587.41 187.13 570.86 189.26 556 curveto
195.75 510.83 199.26 459.48 201.15 420.12 curveto
stroke
0 0 0 edgecolor
newpath 204.65 420.28 moveto
201.6 410.13 lineto
197.65 419.96 lineto
closepath fill
1 setlinewidth
solid
0 0 0 edgecolor
newpath 204.65 420.28 moveto
201.6 410.13 lineto
197.65 419.96 lineto
closepath stroke
0 0 0 edgecolor
14 /Times-Roman set_font
199.26 488.3 moveto 32 ({e/E}) alignedtext
grestore
% real4
gsave
1 setlinewidth
0 0 0 nodecolor
256.26 184 64.03 64.04 ellipse_path stroke
0 0 0 nodecolor
12 /Times-Roman set_font
212.26 180.9 moveto 88 (0-9.{+/-}{e/E}0-9) alignedtext
grestore
% real1->real4
gsave
1 setlinewidth
0 0 0 edgecolor
newpath 187.65 603.1 moveto
201.02 584.18 222.15 552.19 235.26 522 curveto
274.95 430.62 270.58 399.53 266.26 300 curveto
265.67 286.39 264.69 271.89 263.57 257.94 curveto
stroke
0 0 0 edgecolor
newpath 267.05 257.58 moveto
262.73 247.9 lineto
260.07 258.16 lineto
closepath fill
1 setlinewidth
solid
0 0 0 edgecolor
newpath 267.05 257.58 moveto
262.73 247.9 lineto
260.07 258.16 lineto
closepath stroke
0 0 0 edgecolor
14 /Times-Roman set_font
266.26 432.3 moveto 19 (0-9) alignedtext
grestore
% real2->errN
gsave
1 setlinewidth
0 0 0 edgecolor
newpath 115.43 471 moveto
100.56 455.87 82.03 433.7 73.26 410 curveto
51.89 352.22 53.42 280.32 57.75 233.58 curveto
stroke
0 0 0 edgecolor
newpath 61.26 233.72 moveto
58.78 223.42 lineto
54.29 233.02 lineto
closepath fill
1 setlinewidth
solid
0 0 0 edgecolor
newpath 61.26 233.72 moveto
58.78 223.42 lineto
54.29 233.02 lineto
closepath stroke
0 0 0 edgecolor
14 /Times-Roman set_font
73.26 351.3 moveto 66 (ELSE, EOF) alignedtext
grestore
% real2->real3
gsave
1 setlinewidth
0 0 0 edgecolor
newpath 144.6 462.49 moveto
147.87 451.47 152.15 438.91 157.26 428 curveto
160.18 421.77 163.55 415.44 167.11 409.24 curveto
stroke
0 0 0 edgecolor
newpath 170.33 410.67 moveto
172.44 400.29 lineto
164.31 407.1 lineto
closepath fill
1 setlinewidth
solid
0 0 0 edgecolor
newpath 170.33 410.67 moveto
172.44 400.29 lineto
164.31 407.1 lineto
closepath stroke
0 0 0 edgecolor
14 /Times-Roman set_font
157.26 432.3 moveto 32 ({e/E}) alignedtext
grestore
% real3->errN
gsave
1 setlinewidth
0 0 0 edgecolor
newpath 168.9 312.22 moveto
146.46 284.94 117.39 249.59 95.59 223.08 curveto
stroke
0 0 0 edgecolor
newpath 98.12 220.66 moveto
89.07 215.16 lineto
92.72 225.11 lineto
closepath fill
1 setlinewidth
solid
0 0 0 edgecolor
newpath 98.12 220.66 moveto
89.07 215.16 lineto
92.72 225.11 lineto
closepath stroke
0 0 0 edgecolor
14 /Times-Roman set_font
142.26 270.3 moveto 66 (ELSE, EOF) alignedtext
grestore
% real3->real4
gsave
1 setlinewidth
0 0 0 edgecolor
newpath 219.45 302.38 moveto
224.14 287.42 229.34 270.85 234.32 254.97 curveto
stroke
0 0 0 edgecolor
newpath 237.73 255.79 moveto
237.38 245.2 lineto
231.05 253.69 lineto
closepath fill
1 setlinewidth
solid
0 0 0 edgecolor
newpath 237.73 255.79 moveto
237.38 245.2 lineto
231.05 253.69 lineto
closepath stroke
0 0 0 edgecolor
14 /Times-Roman set_font
230.26 270.3 moveto 19 (0-9) alignedtext
grestore
% real4->real
gsave
1 setlinewidth
0 0 0 edgecolor
newpath 256.26 119.81 moveto
256.26 105.79 256.26 91.26 256.26 78.26 curveto
stroke
0 0 0 edgecolor
newpath 259.76 78.2 moveto
256.26 68.2 lineto
252.76 78.2 lineto
closepath fill
1 setlinewidth
solid
0 0 0 edgecolor
newpath 259.76 78.2 moveto
256.26 68.2 lineto
252.76 78.2 lineto
closepath stroke
0 0 0 edgecolor
14 /Times-Roman set_font
256.26 90.3 moveto 33 (ELSE) alignedtext
grestore
% qi
gsave
0 0 0 nodecolor
117.26 800 1.8 1.8 ellipse_path fill
1 setlinewidth
filled
0 0 0 nodecolor
117.26 800 1.8 1.8 ellipse_path stroke
grestore
% qi->num
gsave
1 setlinewidth
0 0 0 edgecolor
newpath 117.26 797.99 moveto
117.26 794.47 117.26 782.23 117.26 769.99 curveto
stroke
0 0 0 edgecolor
newpath 120.76 769.9 moveto
117.26 759.9 lineto
113.76 769.9 lineto
closepath fill
1 setlinewidth
solid
0 0 0 edgecolor
newpath 120.76 769.9 moveto
117.26 759.9 lineto
113.76 769.9 lineto
closepath stroke
grestore
endpage
showpage
grestore
%%PageTrailer
%%EndPage: 1
%%Trailer
end
restore
%%EOF
