%!PS-Adobe-3.0 EPSF-3.0
%%Creator: graphviz version 2.36.0 (20140111.2315)
%%Title: finite_state_machine
%%Pages: 1
%%BoundingBox: 36 36 405 550
%%EndComments
save
%%BeginProlog
/DotDict 200 dict def
DotDict begin

/setupLatin1 {
mark
/EncodingVector 256 array def
 EncodingVector 0

ISOLatin1Encoding 0 255 getinterval putinterval
EncodingVector 45 /hyphen put

% Set up ISO Latin 1 character encoding
/starnetISO {
        dup dup findfont dup length dict begin
        { 1 index /FID ne { def }{ pop pop } ifelse
        } forall
        /Encoding EncodingVector def
        currentdict end definefont
} def
/Times-Roman starnetISO def
/Times-Italic starnetISO def
/Times-Bold starnetISO def
/Times-BoldItalic starnetISO def
/Helvetica starnetISO def
/Helvetica-Oblique starnetISO def
/Helvetica-Bold starnetISO def
/Helvetica-BoldOblique starnetISO def
/Courier starnetISO def
/Courier-Oblique starnetISO def
/Courier-Bold starnetISO def
/Courier-BoldOblique starnetISO def
cleartomark
} bind def

%%BeginResource: procset graphviz 0 0
/coord-font-family /Times-Roman def
/default-font-family /Times-Roman def
/coordfont coord-font-family findfont 8 scalefont def

/InvScaleFactor 1.0 def
/set_scale {
       dup 1 exch div /InvScaleFactor exch def
       scale
} bind def

% styles
/solid { [] 0 setdash } bind def
/dashed { [9 InvScaleFactor mul dup ] 0 setdash } bind def
/dotted { [1 InvScaleFactor mul 6 InvScaleFactor mul] 0 setdash } bind def
/invis {/fill {newpath} def /stroke {newpath} def /show {pop newpath} def} bind def
/bold { 2 setlinewidth } bind def
/filled { } bind def
/unfilled { } bind def
/rounded { } bind def
/diagonals { } bind def
/tapered { } bind def

% hooks for setting color 
/nodecolor { sethsbcolor } bind def
/edgecolor { sethsbcolor } bind def
/graphcolor { sethsbcolor } bind def
/nopcolor {pop pop pop} bind def

/beginpage {	% i j npages
	/npages exch def
	/j exch def
	/i exch def
	/str 10 string def
	npages 1 gt {
		gsave
			coordfont setfont
			0 0 moveto
			(\() show i str cvs show (,) show j str cvs show (\)) show
		grestore
	} if
} bind def

/set_font {
	findfont exch
	scalefont setfont
} def

% draw text fitted to its expected width
/alignedtext {			% width text
	/text exch def
	/width exch def
	gsave
		width 0 gt {
			[] 0 setdash
			text stringwidth pop width exch sub text length div 0 text ashow
		} if
	grestore
} def

/boxprim {				% xcorner ycorner xsize ysize
		4 2 roll
		moveto
		2 copy
		exch 0 rlineto
		0 exch rlineto
		pop neg 0 rlineto
		closepath
} bind def

/ellipse_path {
	/ry exch def
	/rx exch def
	/y exch def
	/x exch def
	matrix currentmatrix
	newpath
	x y translate
	rx ry scale
	0 0 1 0 360 arc
	setmatrix
} bind def

/endpage { showpage } bind def
/showpage { } def

/layercolorseq
	[	% layer color sequence - darkest to lightest
		[0 0 0]
		[.2 .8 .8]
		[.4 .8 .8]
		[.6 .8 .8]
		[.8 .8 .8]
	]
def

/layerlen layercolorseq length def

/setlayer {/maxlayer exch def /curlayer exch def
	layercolorseq curlayer 1 sub layerlen mod get
	aload pop sethsbcolor
	/nodecolor {nopcolor} def
	/edgecolor {nopcolor} def
	/graphcolor {nopcolor} def
} bind def

/onlayer { curlayer ne {invis} if } def

/onlayers {
	/myupper exch def
	/mylower exch def
	curlayer mylower lt
	curlayer myupper gt
	or
	{invis} if
} def

/curlayer 0 def

%%EndResource
%%EndProlog
%%BeginSetup
14 default-font-family set_font
1 setmiterlimit
% /arrowlength 10 def
% /arrowwidth 5 def

% make sure pdfmark is harmless for PS-interpreters other than Distiller
/pdfmark where {pop} {userdict /pdfmark /cleartomark load put} ifelse
% make '<<' and '>>' safe on PS Level 1 devices
/languagelevel where {pop languagelevel}{1} ifelse
2 lt {
    userdict (<<) cvn ([) cvn load put
    userdict (>>) cvn ([) cvn load put
} if

%%EndSetup
setupLatin1
%%Page: 1 1
%%PageBoundingBox: 36 36 405 550
%%PageOrientation: Portrait
0 0 1 beginpage
gsave
36 36 369 514 boxprim clip newpath
1 1 set_scale 0 rotate 40 40 translate
% koniecS
gsave
1 setlinewidth
0 0 0 nodecolor
138 372 25.36 25.73 ellipse_path stroke
1 setlinewidth
0 0 0 nodecolor
138 372 29.28 29.71 ellipse_path stroke
0 0 0 nodecolor
12 /Times-Roman set_font
125 368.9 moveto 26 (END) alignedtext
grestore
% errS
gsave
1 setlinewidth
0 0 0 nodecolor
149 40 35.57 35.89 ellipse_path stroke
1 setlinewidth
0 0 0 nodecolor
149 40 39.56 39.91 ellipse_path stroke
0 0 0 nodecolor
12 /Times-Roman set_font
128 36.9 moveto 42 (ERROR) alignedtext
grestore
% apost
gsave
1 setlinewidth
0 0 0 nodecolor
186 256 18 18 ellipse_path stroke
0 0 0 nodecolor
12 /Times-Roman set_font
184.5 252.9 moveto 3 (') alignedtext
grestore
% apost->errS
gsave
1 setlinewidth
0 0 0 edgecolor
newpath 178.05 239.58 moveto
171.41 225.89 162.36 205.16 158 186 curveto
150.85 154.57 148.59 118.38 148.13 90.02 curveto
stroke
0 0 0 edgecolor
newpath 151.63 89.92 moveto
148.03 79.95 lineto
144.63 89.98 lineto
closepath fill
1 setlinewidth
solid
0 0 0 edgecolor
newpath 151.63 89.92 moveto
148.03 79.95 lineto
144.63 89.98 lineto
closepath stroke
0 0 0 edgecolor
14 /Times-Roman set_font
158 155.3 moveto 66 (ELSE, EOF) alignedtext
grestore
% dapost
gsave
1 setlinewidth
0 0 0 nodecolor
226 488 18 18 ellipse_path stroke
0 0 0 nodecolor
12 /Times-Roman set_font
223.5 484.9 moveto 5 ('') alignedtext
grestore
% apost->dapost
gsave
1 setlinewidth
0 0 0 edgecolor
newpath 193.67 272.35 moveto
196.38 278.35 199.19 285.37 201 292 curveto
216.94 350.44 222.79 421.58 224.88 459.71 curveto
stroke
0 0 0 edgecolor
newpath 221.4 460.19 moveto
225.4 470 lineto
228.39 459.84 lineto
closepath fill
1 setlinewidth
solid
0 0 0 edgecolor
newpath 221.4 460.19 moveto
225.4 470 lineto
228.39 459.84 lineto
closepath stroke
0 0 0 edgecolor
14 /Times-Roman set_font
222 368.3 moveto 3 (') alignedtext
grestore
% string
gsave
1 setlinewidth
0 0 0 nodecolor
259 159 26.21 26.44 ellipse_path stroke
0 0 0 nodecolor
12 /Times-Roman set_font
245.5 155.9 moveto 27 (string) alignedtext
grestore
% apost->string
gsave
1 setlinewidth
0 0 0 edgecolor
newpath 182.31 238.23 moveto
180.92 227.68 180.91 214.18 187 204 curveto
195.38 190 205.04 194.45 219 186 curveto
222.24 184.04 225.59 181.95 228.92 179.84 curveto
stroke
0 0 0 edgecolor
newpath 231.05 182.64 moveto
237.57 174.29 lineto
227.27 176.75 lineto
closepath fill
1 setlinewidth
solid
0 0 0 edgecolor
newpath 231.05 182.64 moveto
237.57 174.29 lineto
227.27 176.75 lineto
closepath stroke
0 0 0 edgecolor
14 /Times-Roman set_font
187 208.3 moveto 58 (Ascii > 31) alignedtext
grestore
% dapost->koniecS
gsave
1 setlinewidth
0 0 0 edgecolor
newpath 210.61 478.09 moveto
200.67 471.76 187.96 462.54 179 452 curveto
168.35 439.47 159.46 423.7 152.72 409.56 curveto
stroke
0 0 0 edgecolor
newpath 155.73 407.73 moveto
148.4 400.08 lineto
149.36 410.63 lineto
closepath fill
1 setlinewidth
solid
0 0 0 edgecolor
newpath 155.73 407.73 moveto
148.4 400.08 lineto
149.36 410.63 lineto
closepath stroke
0 0 0 edgecolor
14 /Times-Roman set_font
179 440.3 moveto 33 (ELSE) alignedtext
grestore
% eSeq
gsave
1 setlinewidth
0 0 0 nodecolor
45 372 45.33 45.61 ellipse_path stroke
0 0 0 nodecolor
12 /Times-Roman set_font
16 368.9 moveto 58 (Escape Seq.) alignedtext
grestore
% dapost->eSeq
gsave
1 setlinewidth
0 0 0 edgecolor
newpath 209.67 479.62 moveto
184.79 468.05 136.37 444.25 99 418 curveto
95.03 415.21 90.99 412.2 86.99 409.1 curveto
stroke
0 0 0 edgecolor
newpath 88.91 406.16 moveto
78.9 402.68 lineto
84.56 411.64 lineto
closepath fill
1 setlinewidth
solid
0 0 0 edgecolor
newpath 88.91 406.16 moveto
78.9 402.68 lineto
84.56 411.64 lineto
closepath stroke
0 0 0 edgecolor
14 /Times-Roman set_font
154 440.3 moveto 7 (#) alignedtext
grestore
% dapost->string
gsave
1 setlinewidth
0 0 0 edgecolor
newpath 242.27 479.79 moveto
253.15 474 266.61 464.73 273 452 curveto
315.54 367.28 288.55 250.74 270.85 193.91 curveto
stroke
0 0 0 edgecolor
newpath 274.16 192.8 moveto
267.77 184.34 lineto
267.5 194.94 lineto
closepath fill
1 setlinewidth
solid
0 0 0 edgecolor
newpath 274.16 192.8 moveto
267.77 184.34 lineto
267.5 194.94 lineto
closepath stroke
0 0 0 edgecolor
14 /Times-Roman set_font
294 296.3 moveto 3 (') alignedtext
grestore
% eSeq->errS
gsave
1 setlinewidth
0 0 0 edgecolor
newpath 57.12 327.95 moveto
66.76 294.14 80.78 245.93 94 204 curveto
106.45 164.51 121.55 119.98 132.77 87.45 curveto
stroke
0 0 0 edgecolor
newpath 136.17 88.36 moveto
136.13 77.76 lineto
129.55 86.07 lineto
closepath fill
1 setlinewidth
solid
0 0 0 edgecolor
newpath 136.17 88.36 moveto
136.13 77.76 lineto
129.55 86.07 lineto
closepath stroke
0 0 0 edgecolor
14 /Times-Roman set_font
94 208.3 moveto 66 (ELSE, EOF) alignedtext
grestore
% eSeq->apost
gsave
1 setlinewidth
0 0 0 edgecolor
newpath 79.47 342.07 moveto
85.93 336.7 92.66 331.16 99 326 curveto
120.98 308.13 146.39 288.04 164.06 274.17 curveto
stroke
0 0 0 edgecolor
newpath 166.35 276.82 moveto
172.05 267.89 lineto
162.03 271.31 lineto
closepath fill
1 setlinewidth
solid
0 0 0 edgecolor
newpath 166.35 276.82 moveto
172.05 267.89 lineto
162.03 271.31 lineto
closepath stroke
0 0 0 edgecolor
14 /Times-Roman set_font
140 296.3 moveto 3 (') alignedtext
grestore
% string->errS
gsave
1 setlinewidth
0 0 0 edgecolor
newpath 241.33 139.2 moveto
225.53 122.4 201.96 97.33 182.59 76.73 curveto
stroke
0 0 0 edgecolor
newpath 185.07 74.25 moveto
175.67 69.36 lineto
179.97 79.05 lineto
closepath fill
1 setlinewidth
solid
0 0 0 edgecolor
newpath 185.07 74.25 moveto
175.67 69.36 lineto
179.97 79.05 lineto
closepath stroke
0 0 0 edgecolor
14 /Times-Roman set_font
218 102.3 moveto 66 (ELSE, EOF) alignedtext
grestore
% string->dapost
gsave
1 setlinewidth
0 0 0 edgecolor
newpath 259.36 185.69 moveto
259.61 236.9 257.74 355.14 238 452 curveto
237.38 455.05 236.56 458.2 235.65 461.3 curveto
stroke
0 0 0 edgecolor
newpath 232.3 460.27 moveto
232.51 470.86 lineto
238.95 462.45 lineto
closepath fill
1 setlinewidth
solid
0 0 0 edgecolor
newpath 232.3 460.27 moveto
232.51 470.86 lineto
238.95 462.45 lineto
closepath stroke
0 0 0 edgecolor
14 /Times-Roman set_font
257 296.3 moveto 3 (') alignedtext
grestore
% string->string
gsave
1 setlinewidth
0 0 0 edgecolor
newpath 283.88 168.66 moveto
294.23 169.33 303 166.11 303 159 curveto
303 154.45 299.4 151.49 294.09 150.12 curveto
stroke
0 0 0 edgecolor
newpath 294.12 146.62 moveto
283.88 149.34 lineto
293.58 153.59 lineto
closepath fill
1 setlinewidth
solid
0 0 0 edgecolor
newpath 294.12 146.62 moveto
283.88 149.34 lineto
293.58 153.59 lineto
closepath stroke
0 0 0 edgecolor
14 /Times-Roman set_font
303 155.3 moveto 58 (Ascii > 31) alignedtext
grestore
% qi
gsave
0 0 0 nodecolor
188 372 1.8 1.8 ellipse_path fill
1 setlinewidth
filled
0 0 0 nodecolor
188 372 1.8 1.8 ellipse_path stroke
grestore
% qi->apost
gsave
1 setlinewidth
0 0 0 edgecolor
newpath 187.98 369.72 moveto
187.83 361.45 187.02 314.94 186.48 284.31 curveto
stroke
0 0 0 edgecolor
newpath 189.98 284.16 moveto
186.3 274.22 lineto
182.98 284.28 lineto
closepath fill
1 setlinewidth
solid
0 0 0 edgecolor
newpath 189.98 284.16 moveto
186.3 274.22 lineto
182.98 284.28 lineto
closepath stroke
grestore
endpage
showpage
grestore
%%PageTrailer
%%EndPage: 1
%%Trailer
end
restore
%%EOF
