\relax 
\providecommand\hyper@newdestlabel[2]{}
\catcode `^\active 
\catcode `"\active 
\catcode `'\active 
\catcode `-\active 
\providecommand\HyperFirstAtBeginDocument{\AtBeginDocument}
\HyperFirstAtBeginDocument{\ifx\hyper@anchor\@undefined
\global\let\oldcontentsline\contentsline
\gdef\contentsline#1#2#3#4{\oldcontentsline{#1}{#2}{#3}}
\global\let\oldnewlabel\newlabel
\gdef\newlabel#1#2{\newlabelxx{#1}#2}
\gdef\newlabelxx#1#2#3#4#5#6{\oldnewlabel{#1}{{#2}{#3}}}
\AtEndDocument{\ifx\hyper@anchor\@undefined
\let\contentsline\oldcontentsline
\let\newlabel\oldnewlabel
\fi}
\fi}
\global\let\hyper@last\relax 
\gdef\HyperFirstAtBeginDocument#1{#1}
\providecommand\HyField@AuxAddToFields[1]{}
\providecommand\HyField@AuxAddToCoFields[2]{}
\select@language{slovak}
\@writefile{toc}{\select@language{slovak}}
\@writefile{lof}{\select@language{slovak}}
\@writefile{lot}{\select@language{slovak}}
\@writefile{toc}{\contentsline {section}{\numberline {1}Pr\IeC {\'\i }klad 1, variant G}{1}{section.1}}
\newlabel{priklad1}{{1}{1}{Príklad 1, variant G}{section.1}{}}
\@writefile{lof}{\contentsline {figure}{\numberline {1}{\ignorespaces Zadan\IeC {\'y} obvod}}{1}{figure.1}}
\newlabel{overflow1a}{{1}{1}{Zadaný obvod}{figure.1}{}}
\@writefile{lof}{\contentsline {figure}{\numberline {2}{\ignorespaces Obvod po \IeC {\'u}prave na hviezdu}}{1}{figure.2}}
\newlabel{overflow1b}{{2}{1}{Obvod po úprave na hviezdu}{figure.2}{}}
\@writefile{toc}{\contentsline {paragraph}{}{2}{section*.2}}
\@writefile{lof}{\contentsline {figure}{\numberline {3}{\ignorespaces Obvod po spojen\IeC {\'\i } rezistorov do s\IeC {\'e}rie}}{2}{figure.3}}
\newlabel{overflow1c}{{3}{2}{Obvod po spojení rezistorov do série}{figure.3}{}}
\@writefile{toc}{\contentsline {paragraph}{}{2}{section*.3}}
\@writefile{lof}{\contentsline {figure}{\numberline {4}{\ignorespaces Obvod po spojen\IeC {\'\i } rezistorov paral\IeC {\'e}lne}}{2}{figure.4}}
\newlabel{overflow1d}{{4}{2}{Obvod po spojení rezistorov paralélne}{figure.4}{}}
\@writefile{toc}{\contentsline {paragraph}{}{3}{section*.4}}
\@writefile{lof}{\contentsline {figure}{\numberline {5}{\ignorespaces Obvod po spojen\IeC {\'\i } rezistorov paral\IeC {\'e}lne}}{3}{figure.5}}
\newlabel{overflow1e}{{5}{3}{Obvod po spojení rezistorov paralélne}{figure.5}{}}
\@writefile{toc}{\contentsline {paragraph}{}{3}{section*.5}}
\@writefile{lof}{\contentsline {figure}{\numberline {6}{\ignorespaces Obvod po spojen\IeC {\'\i } rezistorov s\IeC {\'e}riovo}}{3}{figure.6}}
\newlabel{overflow1f}{{6}{3}{Obvod po spojení rezistorov sériovo}{figure.6}{}}
\@writefile{toc}{\contentsline {paragraph}{}{3}{section*.6}}
\@writefile{toc}{\contentsline {paragraph}{}{3}{section*.7}}
\@writefile{lof}{\contentsline {figure}{\numberline {7}{\ignorespaces Obvod po spojen\IeC {\'\i } rezistorov s\IeC {\'e}riovo}}{4}{figure.7}}
\newlabel{overflow1g}{{7}{4}{Obvod po spojení rezistorov sériovo}{figure.7}{}}
\@writefile{toc}{\contentsline {paragraph}{}{4}{section*.8}}
\@writefile{toc}{\contentsline {paragraph}{}{4}{section*.9}}
\@writefile{toc}{\contentsline {paragraph}{}{4}{section*.10}}
\@writefile{toc}{\contentsline {section}{\numberline {2}Pr\IeC {\'\i }klad 2, variant F}{5}{section.2}}
\newlabel{priklad2}{{2}{5}{Príklad 2, variant F}{section.2}{}}
\@writefile{lof}{\contentsline {figure}{\numberline {8}{\ignorespaces Zadan\IeC {\'y} obvod}}{5}{figure.8}}
\newlabel{overflow1b}{{8}{5}{Zadaný obvod}{figure.8}{}}
\@writefile{lof}{\contentsline {figure}{\numberline {9}{\ignorespaces Odporov\IeC {\'e} zakreslenie obvodu}}{5}{figure.9}}
\newlabel{overflow1b}{{9}{5}{Odporové zakreslenie obvodu}{figure.9}{}}
\@writefile{lof}{\contentsline {figure}{\numberline {10}{\ignorespaces V\IeC {\'y}sledn\IeC {\'y} ekvivalentn\IeC {\'y} obvod}}{5}{figure.10}}
\newlabel{overflow1b}{{10}{5}{Výsledný ekvivalentný obvod}{figure.10}{}}
\@writefile{toc}{\contentsline {paragraph}{ \leavevmode {\color  {mycol}\textbf  { 3. Vypo\IeC {\v c}\IeC {\'\i }tame celkov\IeC {\'y} pr\IeC {\'u}d, ktor\IeC {\'y} pretek\IeC {\'a} cez obvod bez rezistora $R_5$ - $I_{R1}$ }}}{6}{section*.11}}
\@writefile{toc}{\contentsline {paragraph}{ \leavevmode {\color  {mycol}\textbf  { 4. Vypo\IeC {\v c}\IeC {\'\i }tame nap\IeC {\"a}tie $U_{R1}$ odporu $R_1$ a nap\IeC {\"a}tie $U_{R2}$ odporu $R_2$ }}}{6}{section*.12}}
\@writefile{toc}{\contentsline {paragraph}{ \leavevmode {\color  {mycol}\textbf  { 5. Vypo\IeC {\v c}\IeC {\'\i }tame pr\IeC {\'u}d $I_{R2}$ a n\IeC {\'a}sledne dopo\IeC {\v c}\IeC {\'\i }tame pr\IeC {\'u}d $I_{R3}$ }}}{6}{section*.13}}
\@writefile{toc}{\contentsline {paragraph}{ \leavevmode {\color  {mycol}\textbf  { 6. Vypo\IeC {\v c}\IeC {\'\i }tame $U_i$ a $R_{i}$ pri zapojen\IeC {\'\i } bez zdroja a odporu $R_5$\\\\ }}}{6}{section*.14}}
\@writefile{toc}{\contentsline {paragraph}{ \leavevmode {\color  {mycol}\textbf  { 7. Pomocou $U_i$ a $R_i$ vypo\IeC {\v c}\IeC {\'\i }tame $I_{R5}$ a $U_{R5}$ nasledovne }}}{6}{section*.15}}
\@writefile{toc}{\contentsline {section}{\numberline {3}Pr\IeC {\'\i }klad 3, variant D}{7}{section.3}}
\newlabel{priklad3}{{3}{7}{Príklad 3, variant D}{section.3}{}}
\@writefile{lof}{\contentsline {figure}{\numberline {11}{\ignorespaces Zadan\IeC {\'y} obvod}}{7}{figure.11}}
\newlabel{overflow1b}{{11}{7}{Zadaný obvod}{figure.11}{}}
\@writefile{toc}{\contentsline {paragraph}{}{7}{section*.16}}
\@writefile{toc}{\contentsline {paragraph}{}{8}{section*.17}}
\@writefile{toc}{\contentsline {paragraph}{}{8}{section*.18}}
\@writefile{toc}{\contentsline {paragraph}{}{8}{section*.19}}
\@writefile{toc}{\contentsline {paragraph}{}{8}{section*.20}}
\@writefile{toc}{\contentsline {paragraph}{}{9}{section*.21}}
\@writefile{toc}{\contentsline {paragraph}{}{9}{section*.22}}
\@writefile{toc}{\contentsline {paragraph}{}{9}{section*.23}}
\@writefile{toc}{\contentsline {section}{\numberline {4}Pr\IeC {\'\i }klad 4, variant G}{10}{section.4}}
\newlabel{priklad4}{{4}{10}{Príklad 4, variant G}{section.4}{}}
\@writefile{lof}{\contentsline {figure}{\numberline {12}{\ignorespaces Zadan\IeC {\'y} obvod}}{10}{figure.12}}
\newlabel{overflow1b}{{12}{10}{Zadaný obvod}{figure.12}{}}
\@writefile{lof}{\contentsline {figure}{\numberline {13}{\ignorespaces N\IeC {\'a}hradn\IeC {\'a} sch\IeC {\'e}ma obvodu}}{10}{figure.13}}
\newlabel{overflow1b}{{13}{10}{Náhradná schéma obvodu}{figure.13}{}}
\@writefile{toc}{\contentsline {paragraph}{Z1 - Predstavuje impedanciu resitoru $R_1$\\ Z2 - Predstavuje impedanciu $R_2$ a kondenz\IeC {\'a}toru $C_1$\\ Z3 - Impedancia $ R_3$ a $L_2$\\ Z4 - Impedancia $C_2$\\ Z5 - Impedancia L1\\}{10}{section*.24}}
\@writefile{toc}{\contentsline {paragraph}{}{11}{section*.25}}
\@writefile{toc}{\contentsline {paragraph}{}{11}{section*.26}}
\@writefile{toc}{\contentsline {paragraph}{}{11}{section*.27}}
\@writefile{toc}{\contentsline {paragraph}{}{11}{section*.28}}
\@writefile{toc}{\contentsline {paragraph}{}{11}{section*.29}}
\@writefile{toc}{\contentsline {paragraph}{}{12}{section*.30}}
\@writefile{toc}{\contentsline {section}{\numberline {5}Pr\IeC {\'\i }klad 5, variant F}{13}{section.5}}
\newlabel{priklad4}{{5}{13}{Príklad 5, variant F}{section.5}{}}
\@writefile{lof}{\contentsline {figure}{\numberline {14}{\ignorespaces Zadan\IeC {\'y} obvod}}{13}{figure.14}}
\newlabel{overflow1b}{{14}{13}{Zadaný obvod}{figure.14}{}}
\@writefile{toc}{\contentsline {paragraph}{}{13}{section*.31}}
\@writefile{toc}{\contentsline {paragraph}{}{13}{section*.32}}
\@writefile{toc}{\contentsline {paragraph}{ \leavevmode {\color  {mycol}\textbf  { 3. Dosad\IeC {\'\i }me hodnoty zo zadania }}}{14}{section*.33}}
\@writefile{toc}{\contentsline {paragraph}{}{14}{section*.34}}
\@writefile{toc}{\contentsline {paragraph}{}{14}{section*.35}}
\@writefile{toc}{\contentsline {paragraph}{}{14}{section*.36}}
\@writefile{toc}{\contentsline {paragraph}{}{15}{section*.37}}
\@writefile{toc}{\contentsline {paragraph}{}{15}{section*.38}}
\@writefile{toc}{\contentsline {section}{\numberline {6}Pr\IeC {\'\i }klad 6, variant D}{16}{section.6}}
\newlabel{priklad4}{{6}{16}{Príklad 6, variant D}{section.6}{}}
\@writefile{toc}{\contentsline {section}{\numberline {7}V\IeC {\'y}sledky}{18}{section.7}}
\newlabel{priklad4}{{7}{18}{Výsledky}{section.7}{}}
